[
	{
		"img": "assets/images/speaker/14.jpg",
		"name": "Бокова Людмила",
		"desc": "Заместитель председателя Комитета Совета Федерации по конституционному законодательству и государственному строительству"
	},
	{
		"img": "assets/images/speaker/17.jpg",
		"name": "Александр Тынкован",
		"desc": "Президент Мвидео"
	},
	{
		"img": "assets/images/speaker/15.jpg",
		"name": "Павел Алёшин",
		"desc": "Руководитель Яндекс.Маркет"
	},
	{
		"img": "assets/images/speaker/1.jpg",
		"name": "Герман Клименко",
		"desc": "Председатель совета ИРИ, советник Президента РФ"
	},
	{
		"img": "assets/images/speaker/9.jpg",
		"name": "Сергей Малышев",
		"desc": "Заместитель генерального директора Почты России"
	},
	{
		"img": "assets/images/speaker/4.jpg",
		"name": "Даниил Егоров",
		"desc": "ФНС"
	},
	{
		"img": "assets/images/speaker/yakubov.jpg",
		"name": "Якубов Рустам Рафекович",
		"desc": "Заместитель начальника Главного управления таможенного контроля после выпуска товаров"
	},
	{
		"img": "assets/images/speaker/6.jpg",
		"name": "Леонид Зондберг",
		"desc": "Коммерческий директор DPD"
	},

	{
		"img": "assets/images/speaker/ovchinnikov.jpg",
		"name": "Борис Овчинников",
		"desc": "Аналитическое агенство Data Insight"
	},
	{
		"img": "assets/images/speaker/3.jpg",
		"name": "Алексей Федоров",
		"desc": "Президент АКИТ"
	},
	{
		"img": "assets/images/speaker/12.jpg",
		"name": "Андрей Чечин",
		"desc": "Генеральный директор InPost"
	},
	{
		"img": "assets/images/speaker/16.jpg",
		"name": "Марк Капчиц",
		"desc": "Генеральный директор Bringo World"
	},
	{
		"img": "assets/images/speaker/18.jpg",
		"name": "Чаликов Максим Владиленович",
		"desc": "Начальник главного управления ФНС"
	},
	{
		"img": "assets/images/speaker/pozdneeva.jpg",
		"name": "Елена Позднеева",
		"desc": "Директор по логистике \"220 Вольт\""
	}
]
